           4           1
    0.5247557860215474   -0.0669047930023633    0.0000000000000000    0.0000000000000000
   -0.4600240652223041    0.2174764983344052    0.0000000000000000    0.0000000000000000
    0.0000000000000000    0.0000000000000000    0.5247557860215474   -0.0669047930023633
    0.0000000000000000    0.0000000000000000   -0.4600240652223041    0.2174764983344052
   -0.4922065684373587   -0.1872303179719644    0.0000000000000000    0.0000000000000000
   -0.3657290267124103   -0.4055755110606398    0.0000000000000000    0.0000000000000000
    0.0000000000000000    0.0000000000000000   -0.4922065684373587   -0.1872303179719644
    0.0000000000000000    0.0000000000000000   -0.3657290267124103   -0.4055755110606398
    2.5182467073262811    4.9846012684464043    0.0000000000000000    0.0000000000000000
    4.9846012684464043    5.4817550243030437    0.0000000000000000    0.0000000000000000
    0.0000000000000000    0.0000000000000000    2.5182467073262811    4.9846012684464043
    0.0000000000000000    0.0000000000000000    4.9846012684464043    5.4817550243030437
    0.0000000000000000   -0.5325313236580135    0.0000000000000000    0.0000000000000000
    0.5325313236580135    0.0000000000000000    0.0000000000000000    0.0000000000000000
    0.0000000000000000    0.0000000000000000    0.0000000000000000   -0.5325313236580135
    0.0000000000000000    0.0000000000000000    0.5325313236580135    0.0000000000000000
    0.6410994697391044   -0.4746567452921723    0.0000000000000000    0.0000000000000000
   -0.4746567452921722    0.3589005302608960    0.0000000000000000    0.0000000000000000
    0.0000000000000000    0.0000000000000000    0.6410994697391044   -0.4746567452921723
    0.0000000000000000    0.0000000000000000   -0.4746567452921722    0.3589005302608960
    0.0000000000000000   -0.0507100902864822    0.0000000000000000    0.0000000000000000
    0.0507100902864822    0.0000000000000000    0.0000000000000000    0.0000000000000000
    0.0000000000000000    0.0000000000000000    0.0000000000000000   -0.0507100902864822
    0.0000000000000000    0.0000000000000000    0.0507100902864822    0.0000000000000000
   -0.0000000000000005    2.0500000000000691    0.0000000000000000    0.0000000000000000
    2.0500000000000691   -0.0000000000000005    0.0000000000000000    0.0000000000000000
    0.0000000000000000    0.0000000000000000   -0.0000000000000005    2.0500000000000691
    0.0000000000000000    0.0000000000000000    2.0500000000000691   -0.0000000000000005
    0.0000000000000000    0.0000000000000000    0.0000000000000000    0.0000000000000000
    0.0000000000000000    0.0000000000000000    0.0000000000000000    0.0000000000000000
    0.0000000000000000    0.0000000000000000    0.0000000000000000    0.0000000000000000
    0.0000000000000000    0.0000000000000000    0.0000000000000000    0.0000000000000000
   4.00000052539157     
