 CyGutz VMPI.4.6 BUILT ON Mar  5 2016
 FROZEN ORBITAL INFO:
 NI=  1 NSORB= 0 NELECT=   0.0
 WH%HM%DIMHST=   1 WH%HM%DIMHST_RED=   1
 CHK_WH_HS WITH DIMHST =     1
 NI=  1 I_HS=   1 COEF:
     1.000  0.000
 NT=  1 FS%SEC_N%DIM=    3 WITH ID:
           1       2       4       5
     WITH ID_FROZEN:
           1       2       4       5
 MEAN U/J: 11.8000  0.0000 eV.
************     MATRIX HS  ************
 NI=  1 NI_GLOBAL=  1
 INDEX_HS =    1
 REAL PART
   0.7071   0.0000
   0.0000   0.7071
 IMAG PART
   0.0000   0.0000
   0.0000   0.0000
 Lattice model.
 CALC SET: GA        FULL           -N-PJSLATER    NO DC        eV     
 NT= 1
 LOCAL INTERACTION PART   :
 U              :  11.8000 eV.
 J              :   0.0000 eV.
 FOCK SPACE PART:
 NA             :  1
 FS%OCC(1) L.B. :  0
 FS%OCC(2) U.B. :  2
 FS%DIM         :         4
 HL%OCC(1) L.B. :  0
 HL%OCC(2) U.B. :  2
 WARNING: BND%ISO<ISO_IN! SET BND%ISO=ISO_IN!
 ISO_IN= 2 ISPIN_IN= 2 ISO= 2 ISPIN= 1 ISPO= 2
 BND%NMAX=   2
************         U_N2N  ************
 NI=  1 NI_GLOBAL=  1
 REAL PART
   1.0000   0.0000
   0.0000   1.0000
 IMAG PART
   0.0000   0.0000
   0.0000   0.0000
************         U_C2N  ************
 NI=  1 NI_GLOBAL=  1
 REAL PART
   1.0000   0.0000
   0.0000   1.0000
 IMAG PART
   0.0000   0.0000
   0.0000   0.0000
************         U_B2N  ************
 NI=  1 NI_GLOBAL=  1
 REAL PART
   1.0000   0.0000
   0.0000   1.0000
 IMAG PART
   0.0000   0.0000
   0.0000   0.0000
 MIN/MAX(BND%NE(1,:))=       2       2
 MIN/MAX(BND%NE(2,:))=       1       1
 MIN/MAX(BND%NE(3,:))=       2       2
 VALENCE ELECTRONS: TOTAL=     1.0
                    CORRELATED BLOCK=     1.0
 BND%NMAXIN=    2
************           SR0  ************
 NI=  1 NI_GLOBAL=  1
 REAL PART
   1.0000   0.0000
   0.0000   1.0000
 IMAG PART
   0.0000   0.0000
   0.0000   0.0000
************           HR0  ************
 NI=  1 NI_GLOBAL=  1
 REAL PART
  -0.0000   0.0000
   0.0000  -0.0000
 IMAG PART
   0.0000   0.0000
   0.0000   0.0000
   ORBITAL SPLITTING:
   0.00000   0.00000
 GUTZ FERMI LEVEL=      0.00000000
************           NK0  ************
 NI=  1 NI_GLOBAL=  1
 REAL PART
   0.5000   0.0000
   0.0000   0.5000
 IMAG PART
   0.0000   0.0000
   0.0000   0.0000
   SUB_TOT=  1.000000  0.000000
************      EL-UNSYM  ************
 NI=  1 NI_GLOBAL=  1
 REAL PART
  -0.0000   0.0000
   0.0000  -0.0000
 IMAG PART
   0.0000   0.0000
   0.0000   0.0000
   ORBITAL SPLITTING:
   0.00000   0.00000
 NI=  1 EIGEN VALUES OF        EL:
   -0.0000   -0.0000
 NI=  1 LOCAL ORBITAL LEVEL CENTER(ELC)=  -0.000
************        EL-SYM  ************
 NI=  1 NI_GLOBAL=  1
 REAL PART
  -0.0000   0.0000
   0.0000  -0.0000
 IMAG PART
   0.0000   0.0000
   0.0000   0.0000
   ORBITAL SPLITTING:
   0.00000   0.00000
 MAX ERROR DUE TO SYMMETRIZATION =     0.000000
 NI=  1 EIGEN VALUES OF    EL-SYM:
   -0.0000   -0.0000
************       EL-SYMT  ************
 NI=  1 NI_GLOBAL=  1
 REAL PART
  -0.0000   0.0000
   0.0000  -0.0000
 IMAG PART
   0.0000   0.0000
   0.0000   0.0000
************     NKS-UNSYM  ************
 NI=  1 NI_GLOBAL=  1
 REAL PART
   0.5000   0.0000
   0.0000   0.5000
 IMAG PART
   0.0000   0.0000
   0.0000   0.0000
   SUB_TOT=  1.000000  0.000000
 NI=  1 EIGEN VALUES OF       NKS:
    0.5000    0.5000
************       NKS-SYM  ************
 NI=  1 NI_GLOBAL=  1
 REAL PART
   0.5000   0.0000
   0.0000   0.5000
 IMAG PART
   0.0000   0.0000
   0.0000   0.0000
   SUB_TOT=  1.000000  0.000000
 MAX ERROR DUE TO SYMMETRIZATION =     0.000000
 NI=  1 EIGEN VALUES OF   NKS-SYM:
    0.5000    0.5000
************      NKS-SYMT  ************
 NI=  1 NI_GLOBAL=  1
 REAL PART
   0.5000   0.0000
   0.0000   0.5000
 IMAG PART
   0.0000   0.0000
   0.0000   0.0000
 NELE_LOC TOTAL:
       1.00000
************      D0-UNSYM  ************
 NI=  1 NI_GLOBAL=  1
 REAL PART
  -0.6366   0.0000
   0.0000  -0.6366
 IMAG PART
   0.0000   0.0000
   0.0000   0.0000
 NI=  1 EIGEN VALUES OF  D0-UNSYM:
    0.6366    0.6366
************        D0-SYM  ************
 NI=  1 NI_GLOBAL=  1
 REAL PART
  -0.6366   0.0000
   0.0000  -0.6366
 IMAG PART
   0.0000   0.0000
   0.0000   0.0000
 MAX ERROR DUE TO SYMMETRIZATION =     0.000000
 NI=  1 EIGEN VALUES OF    D0-SYM:
    0.6366    0.6366
************       D0-SYMT  ************
 NI=  1 NI_GLOBAL=  1
 REAL PART
  -0.6366   0.0000
   0.0000  -0.6366
 IMAG PART
   0.0000   0.0000
   0.0000   0.0000
 There are  1 blockes of bands, with band energy windows(wrt E_Fermi):
  -2.000   2.000 | 
 Band window indices:
         1      2 | 
 Band width
       4.000   |  
 Band gap

 CORRELATED BLOCK: EMIN/EMIX=   -2.0000    2.0000
 CORRELATED BAND WIDTH=   4.000
 NI=  1 DIM_PHIK=         6 HL%DIM=         4
       ID_PHIK_N=
         1         2         6         7
       ID_PHIK_J=
         1         2         6         7
             GUTZ_SET_PRJ takes  0 hours  0 minutes and    0.00 seconds (CPU).
                          takes  0 hours  0 minutes and    0.00 seconds (WALL).
 SEC_N %DIM=   3
 SEC_N %ID      =         1         2         4         5
 SEC_N %VAL     =
 
         0.0000    1.0000    2.0000
 NMAX_BK=     2
************          R-WH  ************
 NI=  1 NI_GLOBAL=  1
 REAL PART
  -0.0000   0.0000
   0.0000  -0.0000
 IMAG PART
   0.0000   0.0000
   0.0000   0.0000
************        LA1-WH  ************
 NI=  1 NI_GLOBAL=  1
 REAL PART
   5.3985   0.0000
   0.0000   5.3985
 IMAG PART
   0.0000   0.0000
   0.0000   0.0000
   ORBITAL SPLITTING:
   0.00000   0.00000
************        NKS-WH  ************
 NI=  1 NI_GLOBAL=  1
 REAL PART
   0.5000   0.0000
   0.0000   0.5000
 IMAG PART
   0.0000   0.0000
   0.0000   0.0000
   SUB_TOT=  1.000000  0.000000
************      R-INI-FZ  ************
 NI=  1 NI_GLOBAL=  1
 REAL PART
  -0.0000   0.0000
   0.0000  -0.0000
 IMAG PART
   0.0000   0.0000
   0.0000   0.0000
************    LA1-INI-FZ  ************
 NI=  1 NI_GLOBAL=  1
 REAL PART
   5.3985   0.0000
   0.0000   5.3985
 IMAG PART
   0.0000   0.0000
   0.0000   0.0000
************     R-INI-SYM  ************
 NI=  1 NI_GLOBAL=  1
 REAL PART
  -0.0000   0.0000
   0.0000  -0.0000
 IMAG PART
   0.0000   0.0000
   0.0000   0.0000
 MAX ERROR DUE TO SYMMETRIZATION =     0.000000
************   LA1-INI-SYM  ************
 NI=  1 NI_GLOBAL=  1
 REAL PART
   5.3985   0.0000
   0.0000   5.3985
 IMAG PART
   0.0000   0.0000
   0.0000   0.0000
   ORBITAL SPLITTING:
   0.00000   0.00000
 MAX ERROR DUE TO SYMMETRIZATION =     0.000000
************        NKS-WH  ************
 NI=  1 NI_GLOBAL=  1
 REAL PART
   0.5000   0.0000
   0.0000   0.5000
 IMAG PART
   0.0000   0.0000
   0.0000   0.0000
   SUB_TOT=  1.000000  0.000000
 MAX ERROR DUE TO SYMMETRIZATION =     0.000000
 INITIAL CHEMICAL POTENTIAL=    5.3985
 DIM_X =    3
************ WH%X ************
   -0.00000000    0.00000000    7.63461487
************         R1-IN  ************
 NI=  1 NI_GLOBAL=  1
 REAL PART
  -0.0000   0.0000
   0.0000  -0.0000
 IMAG PART
   0.0000   0.0000
   0.0000   0.0000
************          R-IN  ************
 NI=  1 NI_GLOBAL=  1
 REAL PART
  -0.0000   0.0000
   0.0000  -0.0000
 IMAG PART
   0.0000   0.0000
   0.0000   0.0000
************           LA1  ************
 NI=  1 NI_GLOBAL=  1
 REAL PART
   5.3985   0.0000
   0.0000   5.3985
 IMAG PART
   0.0000   0.0000
   0.0000   0.0000
             CALC_BAND_AL takes  0 hours  0 minutes and    0.00 seconds (CPU).
                          takes  0 hours  0 minutes and    0.00 seconds (WALL).
 GUTZ FERMI LEVEL=      5.39848795
 GA FERMI LEVEL=      5.39848795
************     NKS-UNSYM  ************
 NI=  1 NI_GLOBAL=  1
 REAL PART
   0.5000   0.0000
   0.0000   0.5000
 IMAG PART
   0.0000   0.0000
   0.0000   0.0000
   SUB_TOT=  1.000000  0.000000
 NI=  1 EIGEN VALUES OF       NKS:
    0.5000    0.5000
************       NKS-SYM  ************
 NI=  1 NI_GLOBAL=  1
 REAL PART
   0.5000   0.0000
   0.0000   0.5000
 IMAG PART
   0.0000   0.0000
   0.0000   0.0000
   SUB_TOT=  1.000000  0.000000
 MAX ERROR DUE TO SYMMETRIZATION =     0.000000
 NI=  1 EIGEN VALUES OF   NKS-SYM:
    0.5000    0.5000
************      NKS-SYMT  ************
 NI=  1 NI_GLOBAL=  1
 REAL PART
   0.5000   0.0000
   0.0000   0.5000
 IMAG PART
   0.0000   0.0000
   0.0000   0.0000
 NELE_LOC TOTAL:
       1.00000
************      NKS-REGU  ************
 NI=  1 NI_GLOBAL=  1
 REAL PART
   0.5000   0.0000
   0.0000   0.5000
 IMAG PART
   0.0000   0.0000
   0.0000   0.0000
   SUB_TOT=  1.000000  0.000000
************    ISIMIX-VAR  ************
 NI=  1 NI_GLOBAL=  1
 REAL PART
   2.0000   0.0000
   0.0000   2.0000
 IMAG PART
   0.0000   0.0000
   0.0000   0.0000
   SUB_TOT=  4.000000  0.000000
 NI=  1 EIGEN VALUES OF    ISIMIX:
    2.0000    2.0000
************      ISIMIX-T  ************
 NI=  1 NI_GLOBAL=  1
 REAL PART
   2.0000   0.0000
   0.0000   2.0000
 IMAG PART
   0.0000   0.0000
   0.0000   0.0000
************      D0-UNSYM  ************
 NI=  1 NI_GLOBAL=  1
 REAL PART
  -0.0000   0.0000
   0.0000  -0.0000
 IMAG PART
   0.0000   0.0000
   0.0000   0.0000
 NI=  1 EIGEN VALUES OF  D0-UNSYM:
    0.0000    0.0000
************        D0-SYM  ************
 NI=  1 NI_GLOBAL=  1
 REAL PART
  -0.0000   0.0000
   0.0000  -0.0000
 IMAG PART
   0.0000   0.0000
   0.0000   0.0000
 MAX ERROR DUE TO SYMMETRIZATION =     0.000000
 NI=  1 EIGEN VALUES OF    D0-SYM:
    0.0000    0.0000
************       D0-SYMT  ************
 NI=  1 NI_GLOBAL=  1
 REAL PART
  -0.0000   0.0000
   0.0000  -0.0000
 IMAG PART
   0.0000   0.0000
   0.0000   0.0000
************         D-SYM  ************
 NI=  1 NI_GLOBAL=  1
 REAL PART
  -0.0000   0.0000
   0.0000  -0.0000
 IMAG PART
   0.0000   0.0000
   0.0000   0.0000
 NI=  1 EIGEN VALUES OF     D-SYM:
    0.0000    0.0000
************        D-SYMT  ************
 NI=  1 NI_GLOBAL=  1
 REAL PART
  -0.0000   0.0000
   0.0000  -0.0000
 IMAG PART
   0.0000   0.0000
   0.0000   0.0000
************       LA2-SYM  ************
 NI=  1 NI_GLOBAL=  1
 REAL PART
  -5.3985   0.0000
   0.0000  -5.3985
 IMAG PART
   0.0000   0.0000
   0.0000   0.0000
 NI=  1 EIGEN VALUES OF   LA2-SYM:
   -5.3985   -5.3985
 PJ%C_OLD.PJ%C  =  0.00000000  0.00000000
 PJ%C VAL CHANGE=  5.39848795  5.39848795
 DIAG_FHL ITER=    0 PJ%EVL=         -5.39848795         -5.39848795
 WARNING: ALMOST DEGENERATE GROUND STATE!
 NI=  1 PHI-step gap=  0.00E+00
************     NCV-UNSYM  ************
 NI=  1 NI_GLOBAL=  1
 REAL PART
   1.0000   0.0000
   0.0000   0.0000
 IMAG PART
   0.0000   0.0000
   0.0000   0.0000
   SUB_TOT=  1.000000  0.000000
************       NCV-SYM  ************
 NI=  1 NI_GLOBAL=  1
 REAL PART
   0.5000   0.0000
   0.0000   0.5000
 IMAG PART
   0.0000   0.0000
   0.0000   0.0000
   SUB_TOT=  1.000000  0.000000
 MAX ERROR DUE TO SYMMETRIZATION =     0.500000
                  CALC_LC takes  0 hours  0 minutes and    0.00 seconds (CPU).
                          takes  0 hours  0 minutes and    0.00 seconds (WALL).
************        R0-OUT  ************
 NI=  1 NI_GLOBAL=  1
 REAL PART
   0.0000   0.0000
   0.0000   0.0000
 IMAG PART
   0.0000   0.0000
   0.0000   0.0000
************         R-OUT  ************
 NI=  1 NI_GLOBAL=  1
 REAL PART
   0.0000   0.0000
   0.0000   0.0000
 IMAG PART
   0.0000   0.0000
   0.0000   0.0000
************     R-OUT-SYM  ************
 NI=  1 NI_GLOBAL=  1
 REAL PART
   0.0000   0.0000
   0.0000   0.0000
 IMAG PART
   0.0000   0.0000
   0.0000   0.0000
************     RR\dagger  ************
 NI=  1 NI_GLOBAL=  1
 REAL PART
   0.0000   0.0000
   0.0000   0.0000
 IMAG PART
   0.0000   0.0000
   0.0000   0.0000
 NI=  1 EIGEN VALUES OF RR\dagger:
    0.0000    0.0000
************   RR\dagger_T  ************
 NI=  1 NI_GLOBAL=  1
 REAL PART
   0.0000   0.0000
   0.0000   0.0000
 IMAG PART
   0.0000   0.0000
   0.0000   0.0000
************     R\daggerR  ************
 NI=  1 NI_GLOBAL=  1
 REAL PART
   0.0000   0.0000
   0.0000   0.0000
 IMAG PART
   0.0000   0.0000
   0.0000   0.0000
 NI=  1 EIGEN VALUES OF R\daggerR:
    0.0000    0.0000
************   R\daggerR_T  ************
 NI=  1 NI_GLOBAL=  1
 REAL PART
   0.0000   0.0000
   0.0000   0.0000
 IMAG PART
   0.0000   0.0000
   0.0000   0.0000
             UPDATE_R_ALL takes  0 hours  0 minutes and    0.00 seconds (CPU).
                          takes  0 hours  0 minutes and    0.01 seconds (WALL).
                GUTZ_FCN1 takes  0 hours  0 minutes and    0.00 seconds (CPU).
                          takes  0 hours  0 minutes and    0.01 seconds (WALL).
************ DIF_X ************
    0.00000000   -0.00000000    0.00000000
 ITER1=      1 MAXERR=    0.00000000
 SOLVE_NL FINISHED WITH       1 ITERATIONS.
               GUTZ_SOLVE takes  0 hours  0 minutes and    0.00 seconds (CPU).
                          takes  0 hours  0 minutes and    0.01 seconds (WALL).
************     NCP-UNSYM  ************
 NI=  1 NI_GLOBAL=  1
 REAL PART
   1.0000   0.0000
   0.0000   0.0000
 IMAG PART
   0.0000   0.0000
   0.0000   0.0000
   SUB_TOT=  1.000000  0.000000
************       NCP-SYM  ************
 NI=  1 NI_GLOBAL=  1
 REAL PART
   0.5000   0.0000
   0.0000   0.5000
 IMAG PART
   0.0000   0.0000
   0.0000   0.0000
   SUB_TOT=  1.000000  0.000000
 MAX ERROR DUE TO SYMMETRIZATION =     0.500000
 NI=  1 SUM_PHY-SUM_VAR=      0.00000000
        SUM_PHY-SUM_KS =     -0.00000000 WOULD BE RENORMALIZED!
************    NCP_RENORM  ************
 NI=  1 NI_GLOBAL=  1
 REAL PART
   0.5000   0.0000
   0.0000   0.5000
 IMAG PART
   0.0000   0.0000
   0.0000   0.0000
   SUB_TOT=  1.000000  0.000000
               CALC_NCPHY takes  0 hours  0 minutes and    0.00 seconds (CPU).
                          takes  0 hours  0 minutes and    0.00 seconds (WALL).
 GYZ%HL%EGAMM:
     0.00000
 ENG%GAMM:     0.00000
 ENG%POT2:     0.00000
 EDCLA1(NI) ARRAY:
    -5.398
 EDCUJ(NI) ARRAY:
     0.000
 EDC(NI) ARRAY:
    -5.398
 ENG%DBLC:    -5.39849
 ENG%DC1 :    -5.39849
 ENG%DC2 :     0.00000
 ENG%HYBRD:     0.00000
 ENG%BAND:     5.39285
 ENG%TS2 :    -0.00564
 ENG%DL(DEEP LEVEL):     0.00000
 E_TWO_BODY(INTERACTION-D.C.)=     0.00000
 E_ONE_BODY(E_TOT-E_TWO_BODY)=    -0.00564
 ENG%TB(ENG%BAND+ENG%DBLC+ENG%GAMM)=    -0.00564
 NI=  1 OCC_CONFIG_WEIGHT:
        OCC= 0 WEIGHT=   0.00000
        OCC= 1 WEIGHT=   1.00000
        OCC= 2 WEIGHT=   0.00000
MODE= 0 CORRELATED SUBSPACE, SUM_FERWT=      1.0000000 SUM_KSWT=      1.0000000
      MAX OFF DIAGONAL KS.WT=    0.000000
                    TOTAL takes  0 hours  0 minutes and    0.04 seconds (CPU).
                          takes  0 hours  0 minutes and    0.04 seconds (WALL).
